{
	"info": {
		"_postman_id": "1e1897f5-f0f6-4648-8d6c-15451316d6ce",
		"name": "users managment",
		"schema": "https://schema.getpostman.com/json/collection/v2.1.0/collection.json"
	},
	"item": [
		{
			"name": "Create User",
			"request": {
				"auth": {
					"type": "noauth"
				},
				"method": "POST",
				"header": [
					{
						"key": "Content-Type",
						"name": "Content-Type",
						"value": "application/json",
						"type": "text"
					},
					{
						"key": "Accept",
						"value": "application/vnd.kepiso.user-v2+json",
						"type": "text",
						"disabled": true
					}
				],
				"body": {
					"mode": "raw",
					"raw": "{\n    \"id\": \"05fd2378-a83b-4b3d-b93b-21d832ee1d3f\",\n    \"username\": \"string\",\n    \"password\": \"string\",\n    \"name\": \"string\",\n    \"roles\": \"USER,ADMIN\",\n    \"email\": \"string@string.com\",\n    \"comment\": \"string\"\n}",
					"options": {
						"raw": {
							"language": "json"
						}
					}
				},
				"url": {
					"raw": "http://localhost:8010/api/users",
					"protocol": "http",
					"host": [
						"localhost"
					],
					"port": "8010",
					"path": [
						"api",
						"users"
					]
				}
			},
			"response": []
		},
		{
			"name": "Deactivate",
			"request": {
				"auth": {
					"type": "noauth"
				},
				"method": "PATCH",
				"header": [
					{
						"key": "Content-Type",
						"name": "Content-Type",
						"value": "application/json",
						"type": "text"
					},
					{
						"key": "Accept",
						"value": "application/vnd.kepiso.user-v2+json",
						"type": "text",
						"disabled": true
					}
				],
				"body": {
					"mode": "raw",
					"raw": "{\n    \"id\": \"05fd2378-a83b-4b3d-b93b-21d832ee1d3f\",\n    \"originalVersion\": 0,\n    \"operation\": \"DEACTIVATE\",\n    \"value\": \"string\"\n}",
					"options": {
						"raw": {
							"language": "json"
						}
					}
				},
				"url": {
					"raw": "http://localhost:8010/api/users",
					"protocol": "http",
					"host": [
						"localhost"
					],
					"port": "8010",
					"path": [
						"api",
						"users"
					]
				}
			},
			"response": []
		},
		{
			"name": "Activate",
			"request": {
				"auth": {
					"type": "noauth"
				},
				"method": "PATCH",
				"header": [
					{
						"key": "Content-Type",
						"name": "Content-Type",
						"value": "application/json",
						"type": "text"
					},
					{
						"key": "Accept",
						"value": "application/vnd.kepiso.user-v2+json",
						"type": "text",
						"disabled": true
					}
				],
				"body": {
					"mode": "raw",
					"raw": "{\n    \"id\": \"05fd2378-a83b-4b3d-b93b-21d832ee1d3f\",\n    \"originalVersion\": 1,\n    \"operation\": \"ACTIVATE\",\n    \"value\": \"string\"\n}",
					"options": {
						"raw": {
							"language": "json"
						}
					}
				},
				"url": {
					"raw": "http://localhost:8010/api/users",
					"protocol": "http",
					"host": [
						"localhost"
					],
					"port": "8010",
					"path": [
						"api",
						"users"
					]
				}
			},
			"response": []
		},
		{
			"name": "Change password",
			"request": {
				"auth": {
					"type": "noauth"
				},
				"method": "PATCH",
				"header": [
					{
						"key": "Content-Type",
						"name": "Content-Type",
						"value": "application/json",
						"type": "text"
					},
					{
						"key": "Accept",
						"value": "application/vnd.kepiso.user-v2+json",
						"type": "text",
						"disabled": true
					}
				],
				"body": {
					"mode": "raw",
					"raw": "{\n    \"id\": \"05fd2378-a83b-4b3d-b93b-21d832ee1d3f\",\n    \"originalVersion\": 2,\n    \"operation\": \"CHANGE_PASSWORD\",\n    \"value\": \"new password\"\n}",
					"options": {
						"raw": {
							"language": "json"
						}
					}
				},
				"url": {
					"raw": "http://localhost:8010/api/users",
					"protocol": "http",
					"host": [
						"localhost"
					],
					"port": "8010",
					"path": [
						"api",
						"users"
					]
				}
			},
			"response": []
		},
		{
			"name": "Change name",
			"request": {
				"auth": {
					"type": "noauth"
				},
				"method": "PATCH",
				"header": [
					{
						"key": "Content-Type",
						"name": "Content-Type",
						"value": "application/json",
						"type": "text"
					},
					{
						"key": "Accept",
						"value": "application/vnd.kepiso.user-v2+json",
						"type": "text",
						"disabled": true
					}
				],
				"body": {
					"mode": "raw",
					"raw": "{\n    \"id\": \"05fd2378-a83b-4b3d-b93b-21d832ee1d3f\",\n    \"originalVersion\": 3,\n    \"operation\": \"CHANGE_NAME\",\n    \"value\": \"new name\"\n}",
					"options": {
						"raw": {
							"language": "json"
						}
					}
				},
				"url": {
					"raw": "http://localhost:8010/api/users",
					"protocol": "http",
					"host": [
						"localhost"
					],
					"port": "8010",
					"path": [
						"api",
						"users"
					]
				}
			},
			"response": []
		},
		{
			"name": "Change email",
			"request": {
				"auth": {
					"type": "noauth"
				},
				"method": "PATCH",
				"header": [
					{
						"key": "Content-Type",
						"name": "Content-Type",
						"value": "application/json",
						"type": "text"
					},
					{
						"key": "Accept",
						"value": "application/vnd.kepiso.user-v2+json",
						"type": "text",
						"disabled": true
					}
				],
				"body": {
					"mode": "raw",
					"raw": "{\n    \"id\": \"05fd2378-a83b-4b3d-b93b-21d832ee1d3f\",\n    \"originalVersion\": 4,\n    \"operation\": \"CHANGE_EMAIL\",\n    \"value\": \"new@email\"\n}",
					"options": {
						"raw": {
							"language": "json"
						}
					}
				},
				"url": {
					"raw": "http://localhost:8010/api/users",
					"protocol": "http",
					"host": [
						"localhost"
					],
					"port": "8010",
					"path": [
						"api",
						"users"
					]
				}
			},
			"response": []
		},
		{
			"name": "Change comment",
			"request": {
				"auth": {
					"type": "noauth"
				},
				"method": "PATCH",
				"header": [
					{
						"key": "Content-Type",
						"name": "Content-Type",
						"value": "application/json",
						"type": "text"
					},
					{
						"key": "Accept",
						"value": "application/vnd.kepiso.user-v2+json",
						"type": "text",
						"disabled": true
					}
				],
				"body": {
					"mode": "raw",
					"raw": "{\n    \"id\": \"05fd2378-a83b-4b3d-b93b-21d832ee1d3f\",\n    \"originalVersion\": 5,\n    \"operation\": \"CHANGE_COMMENT\",\n    \"value\": \"new comment\"\n}",
					"options": {
						"raw": {
							"language": "json"
						}
					}
				},
				"url": {
					"raw": "http://localhost:8010/api/users",
					"protocol": "http",
					"host": [
						"localhost"
					],
					"port": "8010",
					"path": [
						"api",
						"users"
					]
				}
			},
			"response": []
		},
		{
			"name": "Revoke roles",
			"request": {
				"auth": {
					"type": "noauth"
				},
				"method": "PATCH",
				"header": [
					{
						"key": "Content-Type",
						"name": "Content-Type",
						"value": "application/json",
						"type": "text"
					},
					{
						"key": "Accept",
						"value": "application/vnd.kepiso.user-v2+json",
						"type": "text",
						"disabled": true
					}
				],
				"body": {
					"mode": "raw",
					"raw": "{\n    \"id\": \"05fd2378-a83b-4b3d-b93b-21d832ee1d3f\",\n    \"originalVersion\": 6,\n    \"operation\": \"REVOKE_ROLES\",\n    \"value\": \"ADMIN\"\n}",
					"options": {
						"raw": {
							"language": "json"
						}
					}
				},
				"url": {
					"raw": "http://localhost:8010/api/users",
					"protocol": "http",
					"host": [
						"localhost"
					],
					"port": "8010",
					"path": [
						"api",
						"users"
					]
				}
			},
			"response": []
		},
		{
			"name": "Assign roles",
			"request": {
				"auth": {
					"type": "noauth"
				},
				"method": "PATCH",
				"header": [
					{
						"key": "Content-Type",
						"name": "Content-Type",
						"value": "application/json",
						"type": "text"
					},
					{
						"key": "Accept",
						"value": "application/vnd.kepiso.user-v2+json",
						"type": "text",
						"disabled": true
					}
				],
				"body": {
					"mode": "raw",
					"raw": "{\n    \"id\": \"05fd2378-a83b-4b3d-b93b-21d832ee1d3f\",\n    \"originalVersion\": 7,\n    \"operation\": \"ASSIGN_ROLES\",\n    \"value\": \"ADMIN\"\n}",
					"options": {
						"raw": {
							"language": "json"
						}
					}
				},
				"url": {
					"raw": "http://localhost:8010/api/users",
					"protocol": "http",
					"host": [
						"localhost"
					],
					"port": "8010",
					"path": [
						"api",
						"users"
					]
				}
			},
			"response": []
		}
	],
	"protocolProfileBehavior": {}
}